Язык программирования R
…
```r
data(starwars, package='dplyr')
colnames(starwars)
##  [1] "name"       "height"     "mass"       "hair_color" "skin_color" "eye_color"  "birth_year" "sex"        "gender"     "homeworld" 
## [11] "species"    "films"      "vehicles"   "starships"
```
]

.pull-left[
Обычный вызов функции:
.code-small[

```r
select(starwars, 'name', 'mass')
## # A tibble: 87 × 2
##    name                mass
##    <chr>              <dbl>
##  1 Luke Skywalker        77
##  2 C-3PO                 75
##  3 R2-D2                 32
##  4 Darth Vader          136
##  5 Leia Organa           49
##  6 Owen Lars            120
##  7 Beru Whitesun lars    75
##  8 R5-D4                 32
##  9 Biggs Darklighter     84
## 10 Obi-Wan Kenobi        77
## # … with 77 more rows
```
]]

.pull-right[
Вызов с квотацией аргументов:
.code-small[

```r
select(starwars, name, mass)
## # A tibble: 87 × 2
##    name                mass
##    <chr>              <dbl>
##  1 Luke Skywalker        77
##  2 C-3PO                 75
##  3 R2-D2                 32
##  4 Darth Vader          136
##  5 Leia Organa           49
##  6 Owen Lars            120
##  7 Beru Whitesun lars    75
##  8 R5-D4                 32
##  9 Biggs Darklighter     84
## 10 Obi-Wan Kenobi        77
## # … with 77 more rows
```
…
