Таблицы
…
```r
data(package = 'dplyr')
```

<img src="img/data_dplyr.png" width="100%" />

---

## Встроенные данные

```r
data(starwars, package = 'dplyr')
starwars
## # A tibble: 87 × 14
##    name     height  mass hair_color skin_color eye_color birth_year sex   gender
##    <chr>     <int> <dbl> <chr>      <chr>      <chr>          <dbl> <chr> <chr> 
##  1 Luke Sk…    172    77 blond      fair       blue            19   male  mascu…
##  2 C-3PO       167    75 <NA>       gold       yellow         112   none  mascu…
##  3 R2-D2        96    32 <NA>       white, bl… red             33   none  mascu…
##  4 Darth V…    202   136 none       white      yellow          41.9 male  mascu…
##  5 Leia Or…    150    49 brown      light      brown           19   fema… femin…
##  6 Owen La…    178   120 brown, gr… light      blue            52   male  mascu…
##  7 Beru Wh…    165    75 brown      light      blue            47   fema… femin…
##  8 R5-D4        97    32 <NA>       white, red red             NA   none  mascu…
##  9 Biggs D…    183    84 black      light      brown           24   male  mascu…
## 10 Obi-Wan…    182    77 auburn, w… fair       blue-gray       57   male  mascu…
## # ℹ 77 more rows
## # ℹ 5 more variables: homeworld <chr>, species <chr>, films <list>,
## #   vehicles <list>, starships <list>
```
…
# Файлы с фиксированной шириной столбца

```r
(wenergy = read_table('../r-geo-course/data/wind_energy.txt', 
                      col_names = c('id', 'lat', 'lon', 'energy50', 'energy110')))
## 
## ── Column specification ────────────────────────────────────────────────────────
## cols(
##   id = col_double(),
##   lat = col_double(),
##   lon = col_double(),
##   energy50 = col_double(),
##   energy110 = col_double()
## )
## # A tibble: 92 × 5
##       id   lat   lon energy50 energy110
##    <dbl> <dbl> <dbl>    <dbl>     <dbl>
##  1     1  43.5  28       111.      178.
##  2     2  43.5  28.5     187.      301.
##  3     3  44    28.5     169.      271.
##  4     4  44.5  28.5     157.      253.
##  5     5  44.5  29       189.      304.
##  6     6  45    29       170.      274.
##  7     7  45    29.5     199.      320.
##  8     8  45.5  29.5     189.      303.
##  9     9  46    30       180.      289.
## 10    10  46    30.5     208.      334.
## # ℹ 82 more rows
```

---

## Таблицы Microsoft Excel

```r
library(readxl)
(reforest = read_excel('../r-geo-course/data/reforest.xlsx', 
                       col_types = c('text', rep('numeric', 8))))
## # A tibble: 89 × 9
##    Region                `2005` `2010` `2011` `2012` `2013` `2014` `2015` `2016`
##    <chr>                  <dbl>  <dbl>  <dbl>  <dbl>  <dbl>  <dbl>  <dbl>  <dbl>
##  1 Российская Федерация   812.   812.   860    842.   872.   863    803.   840. 
##  2 Центральный федераль…   52.6   62.7   60.9   60.3   70.9   71.2   72.6   77  
##  3 Белгородская область     0.4    0.1    0.3    0.3    0.4    0.4    0.2    0.2
##  4 Брянская область         2.9    2.8    3      3.2    3.5    3.3    3.1    3  
##  5 Владимирская область     4.4    5.3    5.7    6      7.1    5.9    6      4.9
##  6 Воронежская область      1.1    1.1    1.8    3      2.7    2.7    2.6    2.3
##  7 Ивановская область       2.1    1.6    2.2    3.1    4      4.8    4.6    4.2
##  8 Калужская область        2.2    2.3    2.3    2.5    2.4    3.1    3.2    3.2
##  9 Костромская область     10     25.2   11     11.8   15.3   13.6   15.1   16.4
## 10 Курская область          0.5    0.3    0.4    0.6    0.6    0.6    0.5    0.4
## # ℹ 79 more rows
```
…
---

## Выбор переменных

```r
library(dplyr)
(rdf = select(reforest, Region, y2010, y2015))
## # A tibble: 89 × 3
##    Region                        y2010 y2015
##    <chr>                         <dbl> <dbl>
##  1 Российская Федерация          812.  803. 
##  2 Центральный федеральный округ  62.7  72.6
##  3 Белгородская область            0.1   0.2
##  4 Брянская область                2.8   3.1
##  5 Владимирская область            5.3   6  
##  6 Воронежская область             1.1   2.6
##  7 Ивановская область              1.6   4.6
##  8 Калужская область               2.3   3.2
##  9 Костромская область            25.2  15.1
## 10 Курская область                 0.3   0.5
## # ℹ 79 more rows
```

---

## Выбор переменных

Можно исключать (`-`) столбцы и указывать диапазоны (`:`) названий:

```r
(rdf = select(reforest, -y2005, -y2011:-y2014, -y2016))
## # A tibble: 89 × 3
##    Region                        y2010 y2015
##    <chr>                         <dbl> <dbl>
##  1 Российская Федерация          812.  803. 
##  2 Центральный федеральный округ  62.7  72.6
##  3 Белгородская область            0.1   0.2
##  4 Брянская область                2.8   3.1
##  5 Владимирская область            5.3   6  
##  6 Воронежская область             1.1   2.6
##  7 Ивановская область              1.6   4.6
##  8 Калужская область               2.3   3.2
##  9 Костромская область            25.2  15.1
## 10 Курская область                 0.3   0.5
## # ℹ 79 more rows
```
…
---

## Сортировка

```r
arrange(regdf, y2015) # по возрастанию
## # A tibble: 80 × 3
##    Region                              y2010 y2015
##    <chr>                               <dbl> <dbl>
##  1 Орловская область                     0     0.1
##  2 Астраханская область                  0.1   0.1
##  3 Кабардино-Балкарская Республика       0.1   0.1
##  4 Карачаево-Черкесская Республика       0.2   0.1
##  5 Республика Северная Осетия – Алания  NA     0.1
##  6 Ставропольский край                   0.4   0.1
##  7 Белгородская область                  0.1   0.2
##  8 Тульская область                      0.1   0.2
##  9 Магаданская область                   2.6   0.4
## 10 Курская область                       0.3   0.5
## # ℹ 70 more rows
```

---

## Добавление или изменение переменных

```r
regdf = mutate(regdf, delta = y2015 - y2010)
regdf
## # A tibble: 80 × 4
##    Region               y2010 y2015   delta
##    <chr>                <dbl> <dbl>   <dbl>
##  1 Белгородская область   0.1   0.2   0.1  
##  2 Брянская область       2.8   3.1   0.300
##  3 Владимирская область   5.3   6     0.7  
##  4 Воронежская область    1.1   2.6   1.5  
##  5 Ивановская область     1.6   4.6   3    
##  6 Калужская область      2.3   3.2   0.9  
##  7 Костромская область   25.2  15.1 -10.1  
##  8 Курская область        0.3   0.5   0.2  
##  9 Липецкая область       0.4   1.1   0.7  
## 10 Московская область     2.7   8.9   6.2  
## # ℹ 70 more rows
```

---

## Трансмутирование

`transmute()` сохраняет только столбцы, указанные в параметрах

```r
transmute(regdf, Region, delta = y2015 - y2010) # сохраняем только Region и delta
## # A tibble: 80 × 2
##    Region                 delta
##    <chr>                  <dbl>
##  1 Белгородская область   0.1  
##  2 Брянская область       0.300
##  3 Владимирская область   0.7  
##  4 Воронежская область    1.5  
##  5 Ивановская область     3    
##  6 Калужская область      0.9  
##  7 Костромская область  -10.1  
##  8 Курская область        0.2  
##  9 Липецкая область       0.7  
## 10 Московская область     6.2  
## # ℹ 70 more rows
```
…
- `n()` вычисляет количество элементов.

- `n_distinct()` вычисляет количество уникальных элементов.

- `first(x)`, `last(x)` и `nth(x, n)` извлекают, первый, последний и n-ный элемент. 

---

## Группировка

Исходные данные:

```
## # A tibble: 80 × 4
##    Region               y2010 y2015 okrug                        
##    <chr>                <dbl> <dbl> <chr>                        
##  1 Белгородская область   0.1   0.2 Центральный федеральный округ
##  2 Брянская область       2.8   3.1 Центральный федеральный округ
##  3 Владимирская область   5.3   6   Центральный федеральный округ
##  4 Воронежская область    1.1   2.6 Центральный федеральный округ
##  5 Ивановская область     1.6   4.6 Центральный федеральный округ
##  6 Калужская область      2.3   3.2 Центральный федеральный округ
##  7 Костромская область   25.2  15.1 Центральный федеральный округ
##  8 Курская область        0.3   0.5 Центральный федеральный округ
##  9 Липецкая область       0.4   1.1 Центральный федеральный округ
## 10 Московская область     2.7   8.9 Центральный федеральный округ
## # ℹ 70 more rows
```
…
- `unite()`: соединить несколько столбцов.

---

## Преобразование структуры

`pivot_longer()`: широкая форма в длинную форму

```r
(reforest_tidy = reforest |>
    pivot_longer(cols = y2005:y2016,
                 names_to = 'year', 
                 values_to = 'value')
)
## # A tibble: 712 × 3
##    Region                        year  value
##    <chr>                         <chr> <dbl>
##  1 Российская Федерация          y2005 812. 
##  2 Российская Федерация          y2010 812. 
##  3 Российская Федерация          y2011 860  
##  4 Российская Федерация          y2012 842. 
##  5 Российская Федерация          y2013 872. 
##  6 Российская Федерация          y2014 863  
##  7 Российская Федерация          y2015 803. 
##  8 Российская Федерация          y2016 840. 
##  9 Центральный федеральный округ y2005  52.6
## 10 Центральный федеральный округ y2010  62.7
## # ℹ 702 more rows
```

---

## Преобразование структуры

`separate()` + `select()` + `mutate()`: разделить столбец `year`

```r
(reforest_tidy = reforest_tidy |> 
  separate(year, c('y', 'year'), 1) |>
  select(-y) |>
  mutate(year = as.integer(year)))
## # A tibble: 712 × 3
##    Region                         year value
##    <chr>                         <int> <dbl>
##  1 Российская Федерация           2005 812. 
##  2 Российская Федерация           2010 812. 
##  3 Российская Федерация           2011 860  
##  4 Российская Федерация           2012 842. 
##  5 Российская Федерация           2013 872. 
##  6 Российская Федерация           2014 863  
##  7 Российская Федерация           2015 803. 
##  8 Российская Федерация           2016 840. 
##  9 Центральный федеральный округ  2005  52.6
## 10 Центральный федеральный округ  2010  62.7
## # ℹ 702 more rows
```
…
---

## Преобразование структуры

`pivot_wider()`: длинная форма в широкую форму

```r
(reforest = reforest_tidy |>
   pivot_wider(names_from = year, 
               values_from = value)
 )
## # A tibble: 89 × 9
##    Region                `2005` `2010` `2011` `2012` `2013` `2014` `2015` `2016`
##    <chr>                  <dbl>  <dbl>  <dbl>  <dbl>  <dbl>  <dbl>  <dbl>  <dbl>
##  1 Российская Федерация   812.   812.   860    842.   872.   863    803.   840. 
##  2 Центральный федераль…   52.6   62.7   60.9   60.3   70.9   71.2   72.6   77  
##  3 Белгородская область     0.4    0.1    0.3    0.3    0.4    0.4    0.2    0.2
##  4 Брянская область         2.9    2.8    3      3.2    3.5    3.3    3.1    3  
##  5 Владимирская область     4.4    5.3    5.7    6      7.1    5.9    6      4.9
##  6 Воронежская область      1.1    1.1    1.8    3      2.7    2.7    2.6    2.3
##  7 Ивановская область       2.1    1.6    2.2    3.1    4      4.8    4.6    4.2
##  8 Калужская область        2.2    2.3    2.3    2.5    2.4    3.1    3.2    3.2
##  9 Костромская область     10     25.2   11     11.8   15.3   13.6   15.1   16.4
## 10 Курская область          0.5    0.3    0.4    0.6    0.6    0.6    0.5    0.4
## # ℹ 79 more rows
```
…
- `semi_join(x, y, by = )` возвращает все строки из `x`, для которых имеются соответствующие строки в `y`, а также все столбцы из `x`
<br><br>
- `anti_join(x, y, by = )` возвращает все строки из `x`, для которых _не_ найдены соответствующие строки в `y`, а также все столбцы из `x`

---

## Соединение

Таблица по лесозаготовкам:

```r
(timber = read_excel('../r-geo-course/data/timber.xlsx', 
                    col_types = c('text', rep('numeric', 8))) |>
  filter(!str_detect(Регион, 'Федерация|федеральный округ')))
## # A tibble: 75 × 9
##    Регион               `2010` `2011` `2012` `2013` `2014` `2015` `2016` Место
##    <chr>                 <dbl>  <dbl>  <dbl>  <dbl>  <dbl>  <dbl>  <dbl> <dbl>
##  1 Белгородская область   30.4   39.6   27.7   37.4   34.1   45.6   30.4    60
##  2 Брянская область      614.   616.   824.   850.   793.   739.   750.     27
##  3 Владимирская область 1078   1335   1236   1142   1165   1272   1252      20
##  4 Воронежская область    73.6   69.5   68.6   47.9   81.1   86.6   53.5    58
##  5 Ивановская область    130.   140.   200.   199.   231.   326.   421.     38
##  6 Калужская область     274.   244.   192.   198.   183    145.   204      44
##  7 Костромская область  3000   3332   2797   2692   2564   2186   2515      14
##  8 Курская область        22.8   55.4   49.7   50.1   65.9   74.6   80.7    55
##  9 Липецкая область      163.   139     49.7   42.6   50.1   73.1   87.8    53
## 10 Московская область    126.   265.   299.   108.    15.6   NA     NA      74
## # ℹ 65 more rows
```

---

## Соединение

Приводим в аккуратный вид:

```r
(timber_tidy = timber |>
  pivot_longer(`2010`:`2016`, names_to = 'year', values_to = 'harvest') |>
  transmute(Region = Регион,
            year = as.numeric(year),
            harvest = harvest))
## # A tibble: 525 × 3
##    Region                year harvest
##    <chr>                <dbl>   <dbl>
##  1 Белгородская область  2010    30.4
##  2 Белгородская область  2011    39.6
##  3 Белгородская область  2012    27.7
##  4 Белгородская область  2013    37.4
##  5 Белгородская область  2014    34.1
##  6 Белгородская область  2015    45.6
##  7 Белгородская область  2016    30.4
##  8 Брянская область      2010   614. 
##  9 Брянская область      2011   616. 
## 10 Брянская область      2012   824. 
## # ℹ 515 more rows
```

---

## Соединение (старый стиль)

`inner_join()`: соединяем лесозаготовки и лесовосстановление по региону и году

```r
(compare = reforest_tidy |> 
  inner_join(timber_tidy, by = c('Region' = 'Region', 'year' = 'year'))
)
## # A tibble: 511 × 4
##    Region                year value harvest
##    <chr>                <dbl> <dbl>   <dbl>
##  1 Белгородская область  2010   0.1    30.4
##  2 Белгородская область  2011   0.3    39.6
##  3 Белгородская область  2012   0.3    27.7
##  4 Белгородская область  2013   0.4    37.4
##  5 Белгородская область  2014   0.4    34.1
##  6 Белгородская область  2015   0.2    45.6
##  7 Белгородская область  2016   0.2    30.4
##  8 Брянская область      2010   2.8   614. 
##  9 Брянская область      2011   3     616. 
## 10 Брянская область      2012   3.2   824. 
## # ℹ 501 more rows
```

---

## Соединение (новый стиль `join_by`)

`inner_join()`: соединяем лесозаготовки и лесовосстановление по региону и году

```r
(compare = reforest_tidy |> 
  inner_join(timber_tidy, by = join_by(Region, year))
)
## # A tibble: 511 × 4
##    Region                year value harvest
##    <chr>                <dbl> <dbl>   <dbl>
##  1 Белгородская область  2010   0.1    30.4
##  2 Белгородская область  2011   0.3    39.6
##  3 Белгородская область  2012   0.3    27.7
##  4 Белгородская область  2013   0.4    37.4
##  5 Белгородская область  2014   0.4    34.1
##  6 Белгородская область  2015   0.2    45.6
##  7 Белгородская область  2016   0.2    30.4
##  8 Брянская область      2010   2.8   614. 
##  9 Брянская область      2011   3     616. 
## 10 Брянская область      2012   3.2   824. 
## # ℹ 501 more rows
```

---

## Соединение

Вычисляем соотношение:

```r
(compare = compare |> 
   mutate(ratio = 1000 * value / harvest) |> 
   select(Region, year, ratio, value, harvest) |> 
   arrange(year, desc(ratio)))
## # A tibble: 511 × 5
##    Region                    year ratio value harvest
##    <chr>                    <dbl> <dbl> <dbl>   <dbl>
##  1 Ставропольский край       2010 182.    0.4     2.2
##  2 Ростовская область        2010 149.    1.5    10.1
##  3 Магаданская область       2010 118.    2.6    22  
##  4 Сахалинская область       2010  63.8  12.7   199. 
##  5 Республика Саха (Якутия)  2010  63.3  58     917. 
##  6 Республика Тыва           2010  61.8   4.4    71.2
##  7 Мурманская область        2010  52.2   3      57.5
##  8 Волгоградская область     2010  48.4   1.8    37.2
##  9 Камчатский  край          2010  38.9   5.2   134. 
## 10 Амурская область          2010  38.5  29.8   773. 
## # ℹ 501 more rows
```
…
