Основы графики
…
.right-40[
<img src="img/pch.jpg" width="65%" />
]

---

# Линейные графики

Данные по объему сброса загрязненных сточных вод по морям России (млрд куб. м):

```
## ℹ Using "','" as decimal and "'.'" as grouping mark. Use `read_delim()` for more control.
## # A tibble: 22 x 9
##      Год Всего Балтийское Черное Азовское Каспийское Карское Белое Прочие
##    <dbl> <dbl>      <dbl>  <dbl>    <dbl>      <dbl>   <dbl> <dbl>  <dbl>
##  1  1993  27.2        2.5    0.4      4.3       12.1     5.3   1      1.6
##  2  1994  24.6        2.3    0.4      3.2       11       5     0.9    1.8
##  3  1995  24.5        2.3    0.4      3.5       10.4     5.2   0.9    1.8
##  4  1996  22.4        2.2    0.3      3.1        9.8     4.7   0.8    1.5
##  5  1997  23          2.2    0.3      3.8        9.8     4.4   0.8    1.7
##  6  1998  22          2.2    0.3      3.2        9.5     4.2   0.8    1.8
##  7  1999  20.7        2.2    0.3      2.5        9.1     4.1   0.8    1.7
##  8  2000  20.3        2.2    0.3      2          9.2     4.2   0.9    1.5
##  9  2001  19.8        2.1    0.3      1.9        8.9     4.2   0.9    1.5
## 10  2002  19.8        2      0.2      2          9.2     4.1   0.8    1.5
## # … with 12 more rows
```
…
