Продвинутая графика
…
```r
tables = c('tet00034', 'tet00033', 'tet00032', 'tet00031','tet00030', 'tet00029')
trades = lapply(tables, function(X) {
* get_eurostat(X) |>  label_eurostat()
}) |> 
  bind_rows() |>  # объединим прочитанные таблицы в одну
  select(-geo) |>  # убираем столбец с территорией торговли
  filter(stringr::str_detect(indic_et, 'Exports in|Imports in')) |> 
  pivot_wider(names_from = indic_et, values_from = values)  |>
  rename(export = `Exports in million of ECU/EURO`,
         import = `Imports in million of ECU/EURO`) |> 
  mutate(partner = as.factor(partner))
trades
## # A tibble: 720 × 5
##    sitc06                   partner                time        export import
##    <chr>                    <fct>                  <date>       <dbl>  <dbl>
##  1 Food, drinks and tobacco Argentina              2008-01-01    81.3  7334 
##  2 Food, drinks and tobacco Brazil                 2008-01-01   600.   9639.
##  3 Food, drinks and tobacco Canada                 2008-01-01  1950.   1458.
##  4 Food, drinks and tobacco Switzerland            2008-01-01  5000.   2727.
##  5 Food, drinks and tobacco China except Hong Kong 2008-01-01  1322.   3567.
##  6 Food, drinks and tobacco Japan                  2008-01-01  3964.    119.
##  7 Food, drinks and tobacco Norway                 2008-01-01  2416.   3012.
##  8 Food, drinks and tobacco Russia                 2008-01-01  7567.    855.
##  9 Food, drinks and tobacco Turkey                 2008-01-01  1175    3160.
## 10 Food, drinks and tobacco United States          2008-01-01 10021.   6030.
## # … with 710 more rows
```
…
