Основы статистики в R
…
## Пакет googlesheets4

Доступ к облачным таблицам — удобный способ работы с табличными данными, который позволяет избавиться от манипуляций с локальными файлами. Свои данные вы тоже можете хранить в таблицах Google. Если таблицы регулярно обновляются держателем данных, загрузка их из облачного хранилища будет гарантировать вам актуальность анализируемой информации. Ограниченем такого режима работы является то, что для доступа к данным вам нужен Интернет.

Пакет [__googlesheets4__](https://googlesheets4.tidyverse.org/) открывает доступ к таблицам Google. С кратким руководством по использованию пакета вы можете ознакомиться [тут](https://googlesheets4.tidyverse.org/articles/articles/drive-and-sheets.html). Данный пакет использует версию _4.x Google Sheets API_ (отсюда цифра 4 в навании) и рекомендуется к использованию вместо устаревшего пакета [__googlesheets__](https://cran.r-project.org/web/packages/googlesheets/). 

Пакет __googlesheets4__ работает в связке с пакетом __googledrive__, обеспечивающим общие методы доступа к Google Drive. Для загрузки достаточно вызвать функцию `read_sheet()`, передав ей в качестве аргумента ключ таблицы Google (см. предыдущий раздел):

В качестве примера возьмем данные по [__ВВП на душу населения__](https://www.gapminder.org/data/documentation/gd001/):

```r
gdpdf = read_sheet('1cxtzRRN6ldjSGoDzFHkB8vqPavq1iOTMElGewQnmHgg')
gdpdf
## # A tibble: 260 × 256
##    `GDP per capita PPP,… `1764` `1765` `1766` `1767` `1768` `1769` `1770` `1771`
##    <chr>                  <dbl>  <dbl>  <dbl>  <dbl>  <dbl>  <dbl>  <dbl>  <dbl>
##  1 Abkhazia                  NA     NA     NA     NA     NA     NA     NA     NA
##  2 Afghanistan               NA     NA     NA     NA     NA     NA     NA     NA
##  3 Akrotiri and Dhekelia     NA     NA     NA     NA     NA     NA     NA     NA
##  4 Albania                   NA     NA     NA     NA     NA     NA     NA     NA
##  5 Algeria                   NA     NA     NA     NA     NA     NA     NA     NA
##  6 American Samoa            NA     NA     NA     NA     NA     NA     NA     NA
##  7 Andorra                   NA     NA     NA     NA     NA     NA     NA     NA
##  8 Angola                    NA     NA     NA     NA     NA     NA     NA     NA
##  9 Anguilla                  NA     NA     NA     NA     NA     NA     NA     NA
## 10 Antigua and Barbuda       NA     NA     NA     NA     NA     NA     NA     NA
## # … with 250 more rows, and 247 more variables: 1772 <dbl>, 1773 <dbl>,
## #   1774 <dbl>, 1775 <dbl>, 1776 <dbl>, 1777 <dbl>, 1778 <dbl>, 1779 <dbl>,
## #   1780 <dbl>, 1781 <dbl>, 1782 <dbl>, 1783 <dbl>, 1784 <dbl>, 1785 <dbl>,
## #   1786 <dbl>, 1787 <dbl>, 1788 <dbl>, 1789 <dbl>, 1790 <dbl>, 1791 <dbl>,
## #   1792 <dbl>, 1793 <dbl>, 1794 <dbl>, 1795 <dbl>, 1796 <dbl>, 1797 <dbl>,
## #   1798 <dbl>, 1799 <dbl>, 1800 <dbl>, 1801 <dbl>, 1802 <dbl>, 1803 <dbl>,
## #   1804 <dbl>, 1805 <dbl>, 1806 <dbl>, 1807 <dbl>, 1808 <dbl>, 1809 <dbl>, …
```

Аналогично рассмотрим показатель [__ожидаемой продолжительности жизни__](https://www.gapminder.org/data/documentation/gd004/):

```r
lifedf = read_sheet('1H3nzTwbn8z4lJ5gJ_WfDgCeGEXK3PVGcNjQ_U5og8eo')
lifedf
## # A tibble: 260 × 218
##    `Life expectancy`     `1800` `1801` `1802` `1803` `1804` `1805` `1806` `1807`
##    <chr>                  <dbl>  <dbl>  <dbl>  <dbl>  <dbl>  <dbl>  <dbl>  <dbl>
##  1 Abkhazia                NA     NA     NA     NA     NA     NA     NA     NA  
##  2 Afghanistan             28.2   28.2   28.2   28.2   28.2   28.2   28.2   28.1
##  3 Akrotiri and Dhekelia   NA     NA     NA     NA     NA     NA     NA     NA  
##  4 Albania                 35.4   35.4   35.4   35.4   35.4   35.4   35.4   35.4
##  5 Algeria                 28.8   28.8   28.8   28.8   28.8   28.8   28.8   28.8
##  6 American Samoa          NA     NA     NA     NA     NA     NA     NA     NA  
##  7 Andorra                 NA     NA     NA     NA     NA     NA     NA     NA  
##  8 Angola                  27.0   27.0   27.0   27.0   27.0   27.0   27.0   27.0
##  9 Anguilla                NA     NA     NA     NA     NA     NA     NA     NA  
## 10 Antigua and Barbuda     33.5   33.5   33.5   33.5   33.5   33.5   33.5   33.5
## # … with 250 more rows, and 209 more variables: 1808 <dbl>, 1809 <dbl>,
## #   1810 <dbl>, 1811 <dbl>, 1812 <dbl>, 1813 <dbl>, 1814 <dbl>, 1815 <dbl>,
## #   1816 <dbl>, 1817 <dbl>, 1818 <dbl>, 1819 <dbl>, 1820 <dbl>, 1821 <dbl>,
## #   1822 <dbl>, 1823 <dbl>, 1824 <dbl>, 1825 <dbl>, 1826 <dbl>, 1827 <dbl>,
## #   1828 <dbl>, 1829 <dbl>, 1830 <dbl>, 1831 <dbl>, 1832 <dbl>, 1833 <dbl>,
## #   1834 <dbl>, 1835 <dbl>, 1836 <dbl>, 1837 <dbl>, 1838 <dbl>, 1839 <dbl>,
## #   1840 <dbl>, 1841 <dbl>, 1842 <dbl>, 1843 <dbl>, 1844 <dbl>, 1845 <dbl>, …
```

Также нам понадобятся данные [__численности населения__]():

```r
popdf = read_sheet('1IbDM8z5XicMIXgr93FPwjgwoTTKMuyLfzU6cQrGZzH8')
popdf
## # A tibble: 275 × 82
##    `Total population`     `1800`  `1810`  `1820`  `1830`  `1840`  `1850`  `1860`
##    <chr>                   <dbl>   <dbl>   <dbl>   <dbl>   <dbl>   <dbl>   <dbl>
##  1 Abkhazia                   NA      NA      NA      NA      NA      NA      NA
##  2 Afghanistan           3280000 3280000 3323519 3448982 3625022 3810047 3973968
##  3 Akrotiri and Dhekelia      NA      NA      NA      NA      NA      NA      NA
##  4 Albania                410445  423591  438671  457234  478227  506889  552800
##  5 Algeria               2503218 2595056 2713079 2880355 3082721 3299305 3536468
##  6 American Samoa           8170    8156    8142    8128    8114    7958    7564
##  7 Andorra                  2654    2654    2700    2835    3026    3230    3436
##  8 Angola                1567028 1567028 1597530 1686390 1813100 1949329 2110747
##  9 Anguilla                 2025    2025    2064    2177    2338    2511    2693
## 10 Antigua and Barbuda     37000   37000   37000   37000   37000   37000   36532
## # … with 265 more rows, and 74 more variables: 1870 <dbl>, 1880 <dbl>,
## #   1890 <dbl>, 1900 <dbl>, 1910 <dbl>, 1920 <dbl>, 1930 <dbl>, 1940 <dbl>,
## #   1950 <dbl>, 1951 <dbl>, 1952 <dbl>, 1953 <dbl>, 1954 <dbl>, 1955 <dbl>,
## #   1956 <dbl>, 1957 <dbl>, 1958 <dbl>, 1959 <dbl>, 1960 <dbl>, 1961 <dbl>,
## #   1962 <dbl>, 1963 <dbl>, 1964 <dbl>, 1965 <dbl>, 1966 <dbl>, 1967 <dbl>,
## #   1968 <dbl>, 1969 <dbl>, 1970 <dbl>, 1971 <dbl>, 1972 <dbl>, 1973 <dbl>,
## #   1974 <dbl>, 1975 <dbl>, 1976 <dbl>, 1977 <dbl>, 1978 <dbl>, 1979 <dbl>, …
```

И географические данные по [__странам__](https://www.gapminder.org/data/geo/):

```r
countdf = read_sheet('1qHalit8sXC0R8oVXibc2wa2gY7bkwGzOybEMTWp-08o', 2) 
countdf
## # A tibble: 197 × 13
##    geo   name   four_regions eight_regions six_regions members_oecd_g77 Latitude
##    <chr> <chr>  <chr>        <chr>         <chr>       <chr>               <dbl>
##  1 aus   Austr… asia         east_asia_pa… east_asia_… oecd               -25   
##  2 brn   Brunei asia         east_asia_pa… east_asia_… g77                  4.5 
##  3 khm   Cambo… asia         east_asia_pa… east_asia_… g77                 13   
##  4 chn   China  asia         east_asia_pa… east_asia_… g77                 35   
##  5 fji   Fiji   asia         east_asia_pa… east_asia_… g77                -18   
##  6 hkg   Hong … asia         east_asia_pa… east_asia_… others              22.3 
##  7 idn   Indon… asia         east_asia_pa… east_asia_… g77                 -5   
##  8 jpn   Japan  asia         east_asia_pa… east_asia_… oecd                35.7 
##  9 kir   Kirib… asia         east_asia_pa… east_asia_… others               1.42
## 10 prk   North… asia         east_asia_pa… east_asia_… g77                 40   
## # … with 187 more rows, and 6 more variables: Longitude <dbl>,
## #   UN member since <dttm>, World bank region <chr>,
## #   World bank, 4 income groups 2017 <chr>,
## #   World bank, 3 income groups 2017 <chr>, UNHCR <chr>
```
…
Приведем выгруженные ранее данные ВВП к аккуратному виду, избавившись от множества столбцов с годом измерения. Сразу получим данные за 2015 год для анализа:

```r
gdpdf_tidy = gdpdf |> 
   pivot_longer(cols = `1764`:`2018`, 
                names_to = 'year', 
                values_to = 'gdp',
                names_transform = list(year = as.integer)) |> 
   rename(Country = 1)

gdpdf15 = filter(gdpdf_tidy, year == 2015)

gdpdf15
## # A tibble: 260 × 3
##    Country                year    gdp
##    <chr>                 <int>  <dbl>
##  1 Abkhazia               2015    NA 
##  2 Afghanistan            2015  1418.
##  3 Akrotiri and Dhekelia  2015    NA 
##  4 Albania                2015  7343.
##  5 Algeria                2015  6797.
##  6 American Samoa         2015    NA 
##  7 Andorra                2015    NA 
##  8 Angola                 2015  6512.
##  9 Anguilla               2015    NA 
## 10 Antigua and Barbuda    2015 14884.
## # … with 250 more rows
```
…
При построении гистограмм и оценке плотности распределения мы допустили ошибку: приняли, что все измерения являются равнозначными. Однако в данном случае это не так. Население Люксембурга и Пакистана отличается на два порядка --- это означает, что Пакистан должен иметь соответственно больший вес при построении гистограммы. Для учета этой характеристики подгрузим из __Gapminder__ данные по численности населения и присоединим их к нашим таблицам по ВВП и продолжительности жизни:

```r
popdf_tidy = popdf |> # численность населения
  pivot_longer(cols = `1800`:`2015`, 
               names_to = 'year', 
               values_to = 'pop',
               names_transform = list(year = as.integer)) |> 
  rename(Country = 1)

(tab = gdpdf_tidy |> 
    inner_join(lifedf_tidy) |> 
    inner_join(popdf_tidy))
## # A tibble: 19,359 × 5
##    Country   year   gdp lifexp   pop
##    <chr>    <int> <dbl>  <dbl> <dbl>
##  1 Abkhazia  1800    NA     NA    NA
##  2 Abkhazia  1810    NA     NA    NA
##  3 Abkhazia  1820    NA     NA    NA
##  4 Abkhazia  1830    NA     NA    NA
##  5 Abkhazia  1840    NA     NA    NA
##  6 Abkhazia  1850    NA     NA    NA
##  7 Abkhazia  1860    NA     NA    NA
##  8 Abkhazia  1870    NA     NA    NA
##  9 Abkhazia  1880    NA     NA    NA
## 10 Abkhazia  1890    NA     NA    NA
## # … with 19,349 more rows
```
…
---

Присоединим эти данные к исходной таблице:

```r
(tabreg = tab |> 
  left_join(countries) |> 
  filter(year == 2015) |> 
  drop_na())
## # A tibble: 172 × 6
##    Country              year    gdp lifexp      pop Region            
##    <chr>               <int>  <dbl>  <dbl>    <dbl> <chr>             
##  1 Afghanistan          2015  1418.   53.8 32526562 asia_west         
##  2 Albania              2015  7343.   78    2896679 europe_east       
##  3 Algeria              2015  6797.   76.4 39666519 africa_north      
##  4 Angola               2015  6512.   59.6 25021974 africa_sub_saharan
##  5 Antigua and Barbuda  2015 14884.   76.4    91818 america_north     
##  6 Argentina            2015 16640.   76.5 43416755 america_south     
##  7 Armenia              2015  5561.   74.7  3017712 europe_east       
##  8 Australia            2015 38085.   82.3 23968973 east_asia_pacific 
##  9 Austria              2015 37811.   81.3  8544586 europe_west       
## 10 Azerbaijan           2015 10475.   72.9  9753968 europe_east       
## # … with 162 more rows
```
…
