Векторный анализ
…
---

## Метрические отношения

.pull-left[
Результаты необходимо проагрегировать:

``` r
stats = table(id) |> 
  as_tibble() |> 
  mutate(id = as.integer(id))

print(stats, n = 5)
## # A tibble: 657 × 2
##      id     n
##   <int> <int>
## 1     6     1
## 2     7     1
## 3    10     2
## 4    12     4
## 5    13     2
## # ℹ 652 more rows
```
…
