Сетевой анализ
…
---

## Структурный анализ

Результирующий граф

```r
net
## # A sfnetwork with 2133 nodes and 2825 edges
## #
## # CRS:  WGS 84 / UTM zone 37N 
## #
## # A directed multigraph with 223 components with spatially explicit edges
## #
## # A tibble: 2,133 × 1
##                  x
##        <POINT [m]>
## 1 (410948 6177750)
## 2 (410947 6177750)
## 3 (411054 6177640)
## 4 (410947 6177557)
## 5 (410978 6179110)
## 6 (410947 6179112)
## # ℹ 2,127 more rows
## #
## # A tibble: 2,825 × 3
##    from    to                                                                  x
##   <int> <int>                                                   <LINESTRING [m]>
## 1     1     2                                   (410948 6177750, 410947 6177750)
## 2     3     4 (411054 6177640, 411046 6177634, 411011 6177606, 410957 6177564, …
## 3     5     6                   (410978 6179110, 410948 6179112, 410947 6179112)
## # ℹ 2,822 more rows
```
…
